Engine/Binaries/Win64/UE4Game-Win64-Shipping.exe	2021-01-08T17:08:30.265Z
Engine/Extras/Redist/en-us/UE4PrereqSetup_x64.exe	2020-08-09T18:58:04.491Z
Engine/Binaries/ThirdParty/Oculus/OVRPlugin/OVRPlugin/Win64/OVRPlugin.dll	2020-08-09T18:50:05.206Z
Engine/Binaries/ThirdParty/DbgHelp/dbghelp.dll	2020-08-09T18:49:44.653Z
Engine/Binaries/ThirdParty/PhysX3/Win64/VS2015/PxFoundation_x64.dll	2020-08-09T18:50:28.772Z
Engine/Binaries/ThirdParty/PhysX3/Win64/VS2015/PxPvdSDK_x64.dll	2020-08-09T18:50:28.782Z
Engine/Binaries/ThirdParty/PhysX3/Win64/VS2015/PhysX3_x64.dll	2020-08-09T18:50:26.318Z
Engine/Binaries/ThirdParty/PhysX3/Win64/VS2015/PhysX3Cooking_x64.dll	2020-08-09T18:50:28.456Z
Engine/Binaries/ThirdParty/PhysX3/Win64/VS2015/PhysX3Common_x64.dll	2020-08-09T18:50:28.369Z
Engine/Binaries/ThirdParty/PhysX3/Win64/VS2015/APEX_Clothing_x64.dll	2020-08-09T18:50:21.076Z
Engine/Binaries/ThirdParty/PhysX3/Win64/VS2015/APEX_Legacy_x64.dll	2020-08-09T18:50:22.460Z
Engine/Binaries/ThirdParty/PhysX3/Win64/VS2015/ApexFramework_x64.dll	2020-08-09T18:50:23.602Z
Engine/Binaries/ThirdParty/PhysX3/Win64/VS2015/NvCloth_x64.dll	2020-08-09T18:50:26.278Z
Engine/Binaries/ThirdParty/Ogg/Win64/VS2015/libogg_64.dll	2020-08-09T18:50:05.244Z
Engine/Binaries/ThirdParty/Vorbis/Win64/VS2015/libvorbis_64.dll	2020-08-09T18:50:36.651Z
Engine/Binaries/ThirdParty/Vorbis/Win64/VS2015/libvorbisfile_64.dll	2020-08-09T18:50:36.652Z
Engine/Binaries/ThirdParty/NVIDIA/NVaftermath/Win64/GFSDK_Aftermath_Lib.x64.dll	2020-08-09T18:50:00.858Z
Engine/Binaries/ThirdParty/OpenVR/OpenVRv1_5_17/Win64/openvr_api.dll	2020-08-09T18:50:05.318Z
Engine/Binaries/ThirdParty/Windows/XAudio2_9/x64/xaudio2_9redist.dll	2020-08-09T18:50:38.636Z
CTP.exe	2021-05-11T00:48:53.367Z
